[gd_scene load_steps=9 format=3 uid="uid://c1hnjkbvqyhfv"]

[ext_resource type="PackedScene" uid="uid://ul7rc8mnigtb" path="res://character_body_2d.tscn" id="1_xudpa"]
[ext_resource type="Texture2D" uid="uid://b2278uclkchj1" path="res://icon.svg" id="2_iupo8"]
[ext_resource type="PackedScene" uid="uid://bx7n635sre78j" path="res://Coin.tscn" id="3_tbv50"]
[ext_resource type="PackedScene" uid="uid://duak623c2bygm" path="res://asd.tscn" id="5_3nvx5"]
[ext_resource type="Script" path="res://BrickBlock.cs" id="6_lmdt6"]
[ext_resource type="Texture2D" uid="uid://bwfylpg1xe7lm" path="res://wallpaper.webp" id="6_q12ry"]

[sub_resource type="TileSetAtlasSource" id="TileSetAtlasSource_rxbnj"]
texture = ExtResource("2_iupo8")
0:0/0 = 0
0:0/0/physics_layer_0/linear_velocity = Vector2(0, 0)
0:0/0/physics_layer_0/angular_velocity = 0.0
0:0/0/physics_layer_0/polygon_0/points = PackedVector2Array(-8, -8, 8, -8, 8, 8, -8, 8)
1:0/0 = 0
1:0/0/physics_layer_0/linear_velocity = Vector2(0, 0)
1:0/0/physics_layer_0/angular_velocity = 0.0
1:0/0/physics_layer_0/polygon_0/points = PackedVector2Array(-8, -8, 8, -8, 8, 8, -8, 8)
2:0/0 = 0
2:0/0/physics_layer_0/linear_velocity = Vector2(0, 0)
2:0/0/physics_layer_0/angular_velocity = 0.0
2:0/0/physics_layer_0/polygon_0/points = PackedVector2Array(-8, -8, 8, -8, 8, 8, -8, 8)
3:0/0 = 0
3:0/0/physics_layer_0/linear_velocity = Vector2(0, 0)
3:0/0/physics_layer_0/angular_velocity = 0.0
3:0/0/physics_layer_0/polygon_0/points = PackedVector2Array(-8, -8, 8, -8, 8, 8, -8, 8)
4:0/0 = 0
4:0/0/physics_layer_0/linear_velocity = Vector2(0, 0)
4:0/0/physics_layer_0/angular_velocity = 0.0
4:0/0/physics_layer_0/polygon_0/points = PackedVector2Array(-8, -8, 8, -8, 8, 8, -8, 8)
5:0/0 = 0
5:0/0/physics_layer_0/linear_velocity = Vector2(0, 0)
5:0/0/physics_layer_0/angular_velocity = 0.0
5:0/0/physics_layer_0/polygon_0/points = PackedVector2Array(-8, -8, 8, -8, 8, 8, -8, 8)
6:0/0 = 0
6:0/0/physics_layer_0/linear_velocity = Vector2(0, 0)
6:0/0/physics_layer_0/angular_velocity = 0.0
6:0/0/physics_layer_0/polygon_0/points = PackedVector2Array(-8, -8, 8, -8, 8, 8, -8, 8)
7:0/0 = 0
7:0/0/physics_layer_0/linear_velocity = Vector2(0, 0)
7:0/0/physics_layer_0/angular_velocity = 0.0
7:0/0/physics_layer_0/polygon_0/points = PackedVector2Array(-8, -8, 8, -8, 8, 8, -8, 8)
0:1/0 = 0
0:1/0/physics_layer_0/linear_velocity = Vector2(0, 0)
0:1/0/physics_layer_0/angular_velocity = 0.0
0:1/0/physics_layer_0/polygon_0/points = PackedVector2Array(-8, -8, 8, -8, 8, 8, -8, 8)
1:1/0 = 0
1:1/0/physics_layer_0/linear_velocity = Vector2(0, 0)
1:1/0/physics_layer_0/angular_velocity = 0.0
1:1/0/physics_layer_0/polygon_0/points = PackedVector2Array(-8, -8, 8, -8, 8, 8, -8, 8)
2:1/0 = 0
2:1/0/physics_layer_0/linear_velocity = Vector2(0, 0)
2:1/0/physics_layer_0/angular_velocity = 0.0
2:1/0/physics_layer_0/polygon_0/points = PackedVector2Array(-8, -8, 8, -8, 8, 8, -8, 8)
3:1/0 = 0
3:1/0/physics_layer_0/linear_velocity = Vector2(0, 0)
3:1/0/physics_layer_0/angular_velocity = 0.0
3:1/0/physics_layer_0/polygon_0/points = PackedVector2Array(-8, -8, 8, -8, 8, 8, -8, 8)
4:1/0 = 0
4:1/0/physics_layer_0/linear_velocity = Vector2(0, 0)
4:1/0/physics_layer_0/angular_velocity = 0.0
4:1/0/physics_layer_0/polygon_0/points = PackedVector2Array(-8, -8, 8, -8, 8, 8, -8, 8)
5:1/0 = 0
5:1/0/physics_layer_0/linear_velocity = Vector2(0, 0)
5:1/0/physics_layer_0/angular_velocity = 0.0
5:1/0/physics_layer_0/polygon_0/points = PackedVector2Array(-8, -8, 8, -8, 8, 8, -8, 8)
6:1/0 = 0
6:1/0/physics_layer_0/linear_velocity = Vector2(0, 0)
6:1/0/physics_layer_0/angular_velocity = 0.0
6:1/0/physics_layer_0/polygon_0/points = PackedVector2Array(-8, -8, 8, -8, 8, 8, -8, 8)
7:1/0 = 0
7:1/0/physics_layer_0/linear_velocity = Vector2(0, 0)
7:1/0/physics_layer_0/angular_velocity = 0.0
7:1/0/physics_layer_0/polygon_0/points = PackedVector2Array(-8, -8, 8, -8, 8, 8, -8, 8)
0:2/0 = 0
0:2/0/physics_layer_0/linear_velocity = Vector2(0, 0)
0:2/0/physics_layer_0/angular_velocity = 0.0
0:2/0/physics_layer_0/polygon_0/points = PackedVector2Array(-8, -8, 8, -8, 8, 8, -8, 8)
1:2/0 = 0
1:2/0/physics_layer_0/linear_velocity = Vector2(0, 0)
1:2/0/physics_layer_0/angular_velocity = 0.0
1:2/0/physics_layer_0/polygon_0/points = PackedVector2Array(-8, -8, 8, -8, 8, 8, -8, 8)
2:2/0 = 0
2:2/0/physics_layer_0/linear_velocity = Vector2(0, 0)
2:2/0/physics_layer_0/angular_velocity = 0.0
2:2/0/physics_layer_0/polygon_0/points = PackedVector2Array(-8, -8, 8, -8, 8, 8, -8, 8)
3:2/0 = 0
3:2/0/physics_layer_0/linear_velocity = Vector2(0, 0)
3:2/0/physics_layer_0/angular_velocity = 0.0
3:2/0/physics_layer_0/polygon_0/points = PackedVector2Array(-8, -8, 8, -8, 8, 8, -8, 8)
4:2/0 = 0
4:2/0/physics_layer_0/linear_velocity = Vector2(0, 0)
4:2/0/physics_layer_0/angular_velocity = 0.0
4:2/0/physics_layer_0/polygon_0/points = PackedVector2Array(-8, -8, 8, -8, 8, 8, -8, 8)
5:2/0 = 0
5:2/0/physics_layer_0/linear_velocity = Vector2(0, 0)
5:2/0/physics_layer_0/angular_velocity = 0.0
5:2/0/physics_layer_0/polygon_0/points = PackedVector2Array(-8, -8, 8, -8, 8, 8, -8, 8)
6:2/0 = 0
6:2/0/physics_layer_0/linear_velocity = Vector2(0, 0)
6:2/0/physics_layer_0/angular_velocity = 0.0
6:2/0/physics_layer_0/polygon_0/points = PackedVector2Array(-8, -8, 8, -8, 8, 8, -8, 8)
7:2/0 = 0
7:2/0/physics_layer_0/linear_velocity = Vector2(0, 0)
7:2/0/physics_layer_0/angular_velocity = 0.0
7:2/0/physics_layer_0/polygon_0/points = PackedVector2Array(-8, -8, 8, -8, 8, 8, -8, 8)
0:3/0 = 0
0:3/0/physics_layer_0/linear_velocity = Vector2(0, 0)
0:3/0/physics_layer_0/angular_velocity = 0.0
0:3/0/physics_layer_0/polygon_0/points = PackedVector2Array(-8, -8, 8, -8, 8, 8, -8, 8)
1:3/0 = 0
1:3/0/physics_layer_0/linear_velocity = Vector2(0, 0)
1:3/0/physics_layer_0/angular_velocity = 0.0
1:3/0/physics_layer_0/polygon_0/points = PackedVector2Array(-8, -8, 8, -8, 8, 8, -8, 8)
2:3/0 = 0
2:3/0/physics_layer_0/linear_velocity = Vector2(0, 0)
2:3/0/physics_layer_0/angular_velocity = 0.0
2:3/0/physics_layer_0/polygon_0/points = PackedVector2Array(-8, -8, 8, -8, 8, 8, -8, 8)
3:3/0 = 0
3:3/0/physics_layer_0/linear_velocity = Vector2(0, 0)
3:3/0/physics_layer_0/angular_velocity = 0.0
3:3/0/physics_layer_0/polygon_0/points = PackedVector2Array(-8, -8, 8, -8, 8, 8, -8, 8)
4:3/0 = 0
4:3/0/physics_layer_0/linear_velocity = Vector2(0, 0)
4:3/0/physics_layer_0/angular_velocity = 0.0
4:3/0/physics_layer_0/polygon_0/points = PackedVector2Array(-8, -8, 8, -8, 8, 8, -8, 8)
5:3/0 = 0
5:3/0/physics_layer_0/linear_velocity = Vector2(0, 0)
5:3/0/physics_layer_0/angular_velocity = 0.0
5:3/0/physics_layer_0/polygon_0/points = PackedVector2Array(-8, -8, 8, -8, 8, 8, -8, 8)
6:3/0 = 0
6:3/0/physics_layer_0/linear_velocity = Vector2(0, 0)
6:3/0/physics_layer_0/angular_velocity = 0.0
6:3/0/physics_layer_0/polygon_0/points = PackedVector2Array(-8, -8, 8, -8, 8, 8, -8, 8)
7:3/0 = 0
7:3/0/physics_layer_0/linear_velocity = Vector2(0, 0)
7:3/0/physics_layer_0/angular_velocity = 0.0
7:3/0/physics_layer_0/polygon_0/points = PackedVector2Array(-8, -8, 8, -8, 8, 8, -8, 8)
0:4/0 = 0
0:4/0/physics_layer_0/linear_velocity = Vector2(0, 0)
0:4/0/physics_layer_0/angular_velocity = 0.0
0:4/0/physics_layer_0/polygon_0/points = PackedVector2Array(-8, -8, 8, -8, 8, 8, -8, 8)
1:4/0 = 0
1:4/0/physics_layer_0/linear_velocity = Vector2(0, 0)
1:4/0/physics_layer_0/angular_velocity = 0.0
1:4/0/physics_layer_0/polygon_0/points = PackedVector2Array(-8, -8, 8, -8, 8, 8, -8, 8)
2:4/0 = 0
2:4/0/physics_layer_0/linear_velocity = Vector2(0, 0)
2:4/0/physics_layer_0/angular_velocity = 0.0
2:4/0/physics_layer_0/polygon_0/points = PackedVector2Array(-8, -8, 8, -8, 8, 8, -8, 8)
3:4/0 = 0
3:4/0/physics_layer_0/linear_velocity = Vector2(0, 0)
3:4/0/physics_layer_0/angular_velocity = 0.0
3:4/0/physics_layer_0/polygon_0/points = PackedVector2Array(-8, -8, 8, -8, 8, 8, -8, 8)
4:4/0 = 0
4:4/0/physics_layer_0/linear_velocity = Vector2(0, 0)
4:4/0/physics_layer_0/angular_velocity = 0.0
4:4/0/physics_layer_0/polygon_0/points = PackedVector2Array(-8, -8, 8, -8, 8, 8, -8, 8)
5:4/0 = 0
5:4/0/physics_layer_0/linear_velocity = Vector2(0, 0)
5:4/0/physics_layer_0/angular_velocity = 0.0
5:4/0/physics_layer_0/polygon_0/points = PackedVector2Array(-8, -8, 8, -8, 8, 8, -8, 8)
6:4/0 = 0
6:4/0/physics_layer_0/linear_velocity = Vector2(0, 0)
6:4/0/physics_layer_0/angular_velocity = 0.0
6:4/0/physics_layer_0/polygon_0/points = PackedVector2Array(-8, -8, 8, -8, 8, 8, -8, 8)
7:4/0 = 0
7:4/0/physics_layer_0/linear_velocity = Vector2(0, 0)
7:4/0/physics_layer_0/angular_velocity = 0.0
7:4/0/physics_layer_0/polygon_0/points = PackedVector2Array(-8, -8, 8, -8, 8, 8, -8, 8)
0:5/0 = 0
0:5/0/physics_layer_0/linear_velocity = Vector2(0, 0)
0:5/0/physics_layer_0/angular_velocity = 0.0
0:5/0/physics_layer_0/polygon_0/points = PackedVector2Array(-8, -8, 8, -8, 8, 8, -8, 8)
1:5/0 = 0
1:5/0/physics_layer_0/linear_velocity = Vector2(0, 0)
1:5/0/physics_layer_0/angular_velocity = 0.0
1:5/0/physics_layer_0/polygon_0/points = PackedVector2Array(-8, -8, 8, -8, 8, 8, -8, 8)
2:5/0 = 0
2:5/0/physics_layer_0/linear_velocity = Vector2(0, 0)
2:5/0/physics_layer_0/angular_velocity = 0.0
2:5/0/physics_layer_0/polygon_0/points = PackedVector2Array(-8, -8, 8, -8, 8, 8, -8, 8)
3:5/0 = 0
3:5/0/physics_layer_0/linear_velocity = Vector2(0, 0)
3:5/0/physics_layer_0/angular_velocity = 0.0
3:5/0/physics_layer_0/polygon_0/points = PackedVector2Array(-8, -8, 8, -8, 8, 8, -8, 8)
4:5/0 = 0
4:5/0/physics_layer_0/linear_velocity = Vector2(0, 0)
4:5/0/physics_layer_0/angular_velocity = 0.0
4:5/0/physics_layer_0/polygon_0/points = PackedVector2Array(-8, -8, 8, -8, 8, 8, -8, 8)
5:5/0 = 0
5:5/0/physics_layer_0/linear_velocity = Vector2(0, 0)
5:5/0/physics_layer_0/angular_velocity = 0.0
5:5/0/physics_layer_0/polygon_0/points = PackedVector2Array(-8, -8, 8, -8, 8, 8, -8, 8)
6:5/0 = 0
6:5/0/physics_layer_0/linear_velocity = Vector2(0, 0)
6:5/0/physics_layer_0/angular_velocity = 0.0
6:5/0/physics_layer_0/polygon_0/points = PackedVector2Array(-8, -8, 8, -8, 8, 8, -8, 8)
7:5/0 = 0
7:5/0/physics_layer_0/linear_velocity = Vector2(0, 0)
7:5/0/physics_layer_0/angular_velocity = 0.0
7:5/0/physics_layer_0/polygon_0/points = PackedVector2Array(-8, -8, 8, -8, 8, 8, -8, 8)
0:6/0 = 0
0:6/0/physics_layer_0/linear_velocity = Vector2(0, 0)
0:6/0/physics_layer_0/angular_velocity = 0.0
0:6/0/physics_layer_0/polygon_0/points = PackedVector2Array(-8, -8, 8, -8, 8, 8, -8, 8)
1:6/0 = 0
1:6/0/physics_layer_0/linear_velocity = Vector2(0, 0)
1:6/0/physics_layer_0/angular_velocity = 0.0
1:6/0/physics_layer_0/polygon_0/points = PackedVector2Array(-8, -8, 8, -8, 8, 8, -8, 8)
2:6/0 = 0
2:6/0/physics_layer_0/linear_velocity = Vector2(0, 0)
2:6/0/physics_layer_0/angular_velocity = 0.0
2:6/0/physics_layer_0/polygon_0/points = PackedVector2Array(-8, -8, 8, -8, 8, 8, -8, 8)
3:6/0 = 0
3:6/0/physics_layer_0/linear_velocity = Vector2(0, 0)
3:6/0/physics_layer_0/angular_velocity = 0.0
3:6/0/physics_layer_0/polygon_0/points = PackedVector2Array(-8, -8, 8, -8, 8, 8, -8, 8)
4:6/0 = 0
4:6/0/physics_layer_0/linear_velocity = Vector2(0, 0)
4:6/0/physics_layer_0/angular_velocity = 0.0
4:6/0/physics_layer_0/polygon_0/points = PackedVector2Array(-8, -8, 8, -8, 8, 8, -8, 8)
5:6/0 = 0
5:6/0/physics_layer_0/linear_velocity = Vector2(0, 0)
5:6/0/physics_layer_0/angular_velocity = 0.0
5:6/0/physics_layer_0/polygon_0/points = PackedVector2Array(-8, -8, 8, -8, 8, 8, -8, 8)
6:6/0 = 0
6:6/0/physics_layer_0/linear_velocity = Vector2(0, 0)
6:6/0/physics_layer_0/angular_velocity = 0.0
6:6/0/physics_layer_0/polygon_0/points = PackedVector2Array(-8, -8, 8, -8, 8, 8, -8, 8)
7:6/0 = 0
7:6/0/physics_layer_0/linear_velocity = Vector2(0, 0)
7:6/0/physics_layer_0/angular_velocity = 0.0
7:6/0/physics_layer_0/polygon_0/points = PackedVector2Array(-8, -8, 8, -8, 8, 8, -8, 8)
0:7/0 = 0
0:7/0/physics_layer_0/linear_velocity = Vector2(0, 0)
0:7/0/physics_layer_0/angular_velocity = 0.0
0:7/0/physics_layer_0/polygon_0/points = PackedVector2Array(-8, -8, 8, -8, 8, 8, -8, 8)
1:7/0 = 0
1:7/0/physics_layer_0/linear_velocity = Vector2(0, 0)
1:7/0/physics_layer_0/angular_velocity = 0.0
1:7/0/physics_layer_0/polygon_0/points = PackedVector2Array(-8, -8, 8, -8, 8, 8, -8, 8)
2:7/0 = 0
2:7/0/physics_layer_0/linear_velocity = Vector2(0, 0)
2:7/0/physics_layer_0/angular_velocity = 0.0
2:7/0/physics_layer_0/polygon_0/points = PackedVector2Array(-8, -8, 8, -8, 8, 8, -8, 8)
3:7/0 = 0
3:7/0/physics_layer_0/linear_velocity = Vector2(0, 0)
3:7/0/physics_layer_0/angular_velocity = 0.0
3:7/0/physics_layer_0/polygon_0/points = PackedVector2Array(-8, -8, 8, -8, 8, 8, -8, 8)
4:7/0 = 0
4:7/0/physics_layer_0/linear_velocity = Vector2(0, 0)
4:7/0/physics_layer_0/angular_velocity = 0.0
4:7/0/physics_layer_0/polygon_0/points = PackedVector2Array(-8, -8, 8, -8, 8, 8, -8, 8)
5:7/0 = 0
5:7/0/physics_layer_0/linear_velocity = Vector2(0, 0)
5:7/0/physics_layer_0/angular_velocity = 0.0
5:7/0/physics_layer_0/polygon_0/points = PackedVector2Array(-8, -8, 8, -8, 8, 8, -8, 8)
6:7/0 = 0
6:7/0/physics_layer_0/linear_velocity = Vector2(0, 0)
6:7/0/physics_layer_0/angular_velocity = 0.0
6:7/0/physics_layer_0/polygon_0/points = PackedVector2Array(-8, -8, 8, -8, 8, 8, -8, 8)
7:7/0 = 0
7:7/0/physics_layer_0/linear_velocity = Vector2(0, 0)
7:7/0/physics_layer_0/angular_velocity = 0.0
7:7/0/physics_layer_0/polygon_0/points = PackedVector2Array(-8, -8, 8, -8, 8, 8, -8, 8)

[sub_resource type="TileSet" id="TileSet_dhcjt"]
physics_layer_0/collision_layer = 1
sources/0 = SubResource("TileSetAtlasSource_rxbnj")

[node name="Node" type="Node"]

[node name="TileMap" type="TileMap" parent="."]
position = Vector2(0, 23)
scale = Vector2(3, 3)
tile_set = SubResource("TileSet_dhcjt")
format = 2
layer_0/tile_data = PackedInt32Array(720896, 196608, 2, 720897, 196608, 2, 720898, 196608, 2, 720899, 196608, 2, 720900, 196608, 2, 720901, 196608, 2, 720902, 196608, 2, 720903, 196608, 2, 720904, 196608, 2, 720905, 196608, 2, 720906, 196608, 2, 720907, 196608, 2, 720908, 196608, 2, 720909, 196608, 2, 720910, 196608, 2, 720911, 196608, 2, 720912, 196608, 2, 720913, 196608, 2, 720914, 196608, 2, 720915, 196608, 2, 720916, 196608, 2, 720917, 196608, 2, 720918, 196608, 2, 720919, 196608, 2, 786432, 196608, 2, 786443, 196608, 2, 786442, 196608, 2, 786441, 196608, 2, 786440, 196608, 2, 786439, 196608, 2, 786438, 196608, 2, 786437, 196608, 2, 786436, 196608, 2, 786435, 196608, 2, 786434, 196608, 2, 786433, 196608, 2, 786444, 196608, 2, 786445, 196608, 2, 786446, 196608, 2, 786447, 196608, 2, 786448, 196608, 2, 786449, 196608, 2, 786450, 196608, 2, 786451, 196608, 2, 786452, 196608, 2, 786453, 196608, 2, 786454, 196608, 2, 786455, 196608, 2, 655360, 65536, 0, 655367, 65536, 0, 655375, 65536, 0, 655383, 65536, 0, 458775, 65536, 0, 589823, 65536, 0, 655359, 65536, 0, 720895, 65536, 0, 786431, 65536, 0, 851967, 65536, 0)

[node name="Player" parent="." node_paths=PackedStringArray("animatedSprite") instance=ExtResource("1_xudpa")]
position = Vector2(117, 117)
animatedSprite = NodePath("PlayerAnimation")

[node name="Coin" parent="." instance=ExtResource("3_tbv50")]
position = Vector2(459, 474)
SpriteNodeName = "Sprite2D"

[node name="Block" parent="." node_paths=PackedStringArray("ActualNode", "sprite") instance=ExtResource("5_3nvx5")]
position = Vector2(107, 365)
script = ExtResource("6_lmdt6")
UpdatedSprite = ExtResource("6_q12ry")
ActualNode = NodePath(".")
sprite = NodePath("StaticBody2D/Sprite2D")
InitialSprite = ExtResource("2_iupo8")

[connection signal="body_entered" from="Coin" to="Coin" method="_on_body_entered"]

[editable path="Player"]
[editable path="Block"]
